March Madness Seedigami
…
Show code

library(tidyverse)
library(janitor)
results <- read_csv("MNCAATourneyCompactResults.csv") |> 
  clean_names()
seeds <- read_csv("MNCAATourneySeeds.csv") |> 
  clean_names()

Show code

results

# A tibble: 2,451 × 8
   season day_num w_team_id w_score l_team_id l_score w_loc num_ot
    <dbl>   <dbl>     <dbl>   <dbl>     <dbl>   <dbl> <chr>  <dbl>
 1   1985     136      1116      63      1234      54 N          0
 2   1985     136      1120      59      1345      58 N          0
 3   1985     136      1207      68      1250      43 N          0
 4   1985     136      1229      58      1425      55 N          0
 5   1985     136      1242      49      1325      38 N          0
 6   1985     136      1246      66      1449      58 N          0
 7   1985     136      1256      78      1338      54 N          0
 8   1985     136      1260      59      1233      58 N          0
 9   1985     136      1314      76      1292      57 N          0
10   1985     136      1323      79      1333      70 N          0
# ℹ 2,441 more rows

Show code

seeds

# A tibble: 2,558 × 3
   season seed  team_id
    <dbl> <chr>   <dbl>
 1   1985 W01      1207
 2   1985 W02      1210
 3   1985 W03      1228
 4   1985 W04      1260
 5   1985 W05      1374
 6   1985 W06      1208
 7   1985 W07      1393
 8   1985 W08      1396
 9   1985 W09      1439
10   1985 W10      1177
# ℹ 2,548 more rows

Each tournament consists of 63 games. Notice that the data also include games from the First Four.

Show code

results |> 
  count(season) |> 
  arrange(- n)

# A tibble: 38 × 2
   season     n
    <dbl> <int>
 1   2011    67
 2   2012    67
 3   2013    67
 4   2014    67
 5   2015    67
 6   2016    67
 7   2017    67
 8   2018    67
 9   2019    67
10   2022    67
# ℹ 28 more rows
…
Show code

# main 64-team field
results_main <- results |> 
  group_by(season) |>
  mutate(game_num = row_number()) |> # define game number for each tournament
  ungroup() |>
  filter(!(season %in% 2001:2010 & game_num == 1)) |> 
  filter(!(season %in% 2011:2023 & game_num %in% 1:4))

results_main |> 
  count(season) |> 
  arrange(n)

# A tibble: 38 × 2
   season     n
    <dbl> <int>
 1   2021    62
 2   1985    63
 3   1986    63
 4   1987    63
 5   1988    63
 6   1989    63
 7   1990    63
 8   1991    63
 9   1992    63
10   1993    63
# ℹ 28 more rows
…
results_seeds_w_l <- results_seeds_w_l |> 
  bind_rows(results24)

Now I have information on the winning and losing seeds for each game from 1985 up to today (April Fools’ Day - but no fooling…).

Show code

results_seeds_w_l

# A tibble: 2,453 × 3
   season     w     l
    <dbl> <dbl> <dbl>
 1   1985     9     8
 2   1985    11     6
 3   1985     1    16
 4   1985     9     8
 5   1985     3    14
 6   1985    12     5
 7   1985     5    12
 8   1985     4    13
 9   1985     2    15
10   1985     7    10
# ℹ 2,443 more rows

How often has each of these combinations happened?

Show code

results_seeds_w_l |> 
  count(w, l)

# A tibble: 128 × 3
       w     l     n
   <dbl> <dbl> <int>
 1     1     1    21
 2     1     2    38
 3     1     3    23
 4     1     4    48
 5     1     5    43
 6     1     6     9
 7     1     7     6
 8     1     8    61
 9     1     9    74
10     1    10     6
# ℹ 118 more rows

To handle the combinations that have never occurred, I create a table for every possible winning-losing seed combination, and then join with the existing table and update as needed.

Show code

# initialize with all zero's
all_matchups <- crossing(w = 1:16, l = 1:16, n = 0)
# join and update
all_matchups <- all_matchups |> 
  rows_update(count(results_seeds_w_l, w, l), by = c("w", "l"))
all_matchups

# A tibble: 256 × 3
       w     l     n
   <int> <int> <dbl>
 1     1     1    21
 2     1     2    38
 3     1     3    23
 4     1     4    48
 5     1     5    43
 6     1     6     9
 7     1     7     6
 8     1     8    61
 9     1     9    74
10     1    10     6
# ℹ 246 more rows
…
